<?xml version="1.0" encoding="UTF-8" standalone="no"?>
<!-- Created with Inkscape (http://www.inkscape.org/) -->

<svg
   xmlns:dc="http://purl.org/dc/elements/1.1/"
   xmlns:cc="http://creativecommons.org/ns#"
   xmlns:rdf="http://www.w3.org/1999/02/22-rdf-syntax-ns#"
   xmlns:svg="http://www.w3.org/2000/svg"
   xmlns="http://www.w3.org/2000/svg"
   xmlns:sodipodi="http://sodipodi.sourceforge.net/DTD/sodipodi-0.dtd"
   xmlns:inkscape="http://www.inkscape.org/namespaces/inkscape"
   width="128"
   height="128"
   id="svg2"
   version="1.1"
   inkscape:version="0.48.1 "
   sodipodi:docname="icon.svg"
   inkscape:export-filename="C:\Users\Gareth\Code\Personal\ZebraFlickr\design\icon_16.png"
   inkscape:export-xdpi="11.25"
   inkscape:export-ydpi="11.25">
  <defs
     id="defs4" />
  <sodipodi:namedview
     id="base"
     pagecolor="#ffffff"
     bordercolor="#666666"
     borderopacity="1.0"
     inkscape:pageopacity="0.0"
     inkscape:pageshadow="2"
     inkscape:zoom="3.959798"
     inkscape:cx="80.229778"
     inkscape:cy="65.921112"
     inkscape:document-units="px"
     inkscape:current-layer="layer1"
     showgrid="false"
     inkscape:window-width="1920"
     inkscape:window-height="1028"
     inkscape:window-x="-8"
     inkscape:window-y="-8"
     inkscape:window-maximized="1"
     inkscape:snap-bbox="true"
     inkscape:snap-page="true"
     inkscape:snap-center="true"
     inkscape:snap-object-midpoints="true"
     inkscape:snap-midpoints="true"
     inkscape:snap-smooth-nodes="true"
     inkscape:object-nodes="true"
     inkscape:object-paths="true"
     inkscape:snap-intersection-paths="true"
     inkscape:snap-bbox-midpoints="true"
     inkscape:snap-bbox-edge-midpoints="true"
     inkscape:bbox-nodes="true"
     inkscape:bbox-paths="true" />
  <metadata
     id="metadata7">
    <rdf:RDF>
      <cc:Work
         rdf:about="">
        <dc:format>image/svg+xml</dc:format>
        <dc:type
           rdf:resource="http://purl.org/dc/dcmitype/StillImage" />
        <dc:title></dc:title>
      </cc:Work>
    </rdf:RDF>
  </metadata>
  <g
     inkscape:label="Layer 1"
     inkscape:groupmode="layer"
     id="layer1"
     transform="translate(0,-924.36217)">
    <rect
       style="fill:#ffffff;fill-opacity:1;stroke:none"
       id="rect3812"
       width="122.16795"
       height="122.13497"
       x="2.758146"
       y="3.0907629"
       transform="translate(0,924.36217)"
       rx="4.1713591"
       ry="4.1713591" />
    <path
       style="fill:#cbcbcb;fill-opacity:1;stroke:none"
       d="M 10 0 C 4.46 0 -2.7018589e-017 4.46 0 10 L 0 118 C 0 123.54 4.46 128 10 128 L 118 128 C 123.54 128 128 123.54 128 118 L 128 10 C 128 4.46 123.54 -2.7018589e-017 118 0 L 10 0 z M 14.78125 10.59375 L 113.21875 10.59375 C 115.52968 10.59375 117.40625 12.470317 117.40625 14.78125 L 117.40625 113.21875 C 117.40625 115.52968 115.52968 117.40625 113.21875 117.40625 L 14.78125 117.40625 C 12.470317 117.40625 10.59375 115.52968 10.59375 113.21875 L 10.59375 14.78125 C 10.59375 12.470317 12.470317 10.59375 14.78125 10.59375 z "
       transform="translate(0,924.36217)"
       id="rect2991" />
    <flowRoot
       xml:space="preserve"
       id="flowRoot3791"
       style="font-size:40px;font-style:normal;font-variant:normal;font-weight:bold;font-stretch:normal;line-height:125%;letter-spacing:0px;word-spacing:0px;fill:#ff0084;fill-opacity:1;stroke:none;font-family:Segoe UI;-inkscape-font-specification:Segoe UI Bold"
       transform="matrix(2.4954954,0,0,2.4954954,281.66374,836.4644)"><flowRegion
         id="flowRegion3793"><rect
           id="rect3795"
           width="54.2957"
           height="41.668793"
           x="-107.58125"
           y="41.884495"
           style="font-style:normal;font-variant:normal;font-weight:bold;font-stretch:normal;fill:#ff0084;fill-opacity:1;font-family:Segoe UI;-inkscape-font-specification:Segoe UI Bold" /></flowRegion><flowPara
         id="flowPara3797"><flowSpan
   style="font-style:normal;font-variant:normal;font-weight:bold;font-stretch:normal;fill:#0063dc;fill-opacity:1;font-family:Segoe UI;-inkscape-font-specification:Segoe UI Bold"
   id="flowSpan3810">Z</flowSpan>f</flowPara></flowRoot>  </g>
</svg>
